Samuel Mcdowell

Carolin Pacifico

Ria Ensor

Evita Keagle

Mohammad Deskins

Carolin Pacifico

Mohammad Deskins

Evita Keagle

Samuel Mcdowell
Carolin Pacifico

Samuel Mcdowell
Carolin Pacifico
Danette Sharon
Warner Kontos

Samuel Mcdowell

Harold Schutz

Marcell Gullett

Michael Jordan

Samuel Mcdowell
Carolin Pacifico
